Dimensions  = 10.000000 -8.000000 9.000000 -0.900000 0.900000 -0.000000 2.400000
TextureSets = 1
Switches    = 0
Dofs        = 255
AddLOD = Model_0.LOD 500.000000
AddLOD = Model_1.LOD 2500.000000
AddLOD = Model_2.LOD 5000.000000